Final Project
…
With these encoded categorical attributes, standardized continuous attributes and discretized numerical attributes, we can build our model to predict housing sale prices. We build a linear model where the Y is our sale price and the X values are the newly curated attributes we have created based on discrete, categorical, and standardized values.

data_stats <- lm(SalePrice~lot_regular+lot_irregular_1+lot_irregular_2+lot_irregular_3+contour_lvl+contour_bnk+lot_inside+lot_corner+lot_culdesac+fence_mnprv+fence_gdprv+style_1story+style_2story+style_sfoyer+style_1.5fin+style_slvl+YearBuilt*YrSold*YearRemodAdd+scaled_lot_area+qual_1+qual_2+qual_3+qual_4+qual_5+qual_6+qual_7+qual_8+qual_9+cond_1+cond_2+cond_3+cond_4+cond_5+cond_6+cond_7+cond_8+scaled_bsmt_sf+scaled_gr_liv_area+FullBath+HalfBath+TotRmsAbvGrd+scaled_perc_bsmt_finished+scaled_grg_area, data=data)

broom::tidy(data_stats)

## # A tibble: 42 x 5
##    term               estimate  std.error statistic p.value
##    <chr>                 <dbl>      <dbl>     <dbl>   <dbl>
##  1 (Intercept)      257890810. 230366689.     1.12  0.264  
##  2 lot_regular          35875.     13558.     2.65  0.00869
##  3 lot_irregular_1      37817.     13418.     2.82  0.00523
##  4 contour_lvl          -3047.      9425.    -0.323 0.747  
##  5 contour_bnk          -8885.     10868.    -0.818 0.414  
##  6 lot_inside            3546.      7666.     0.463 0.644  
##  7 lot_corner            9136.      7963.     1.15  0.252  
##  8 lot_culdesac          7698.      9061.     0.850 0.396  
##  9 fence_mnprv           2923.      3062.     0.955 0.341  
## 10 fence_gdprv           -466.      3967.    -0.117 0.907  
## # ... with 32 more rows
…
